Content for @WeAreRLadies Rotating Curator
…
dat <- haven::read_sav(
  here("data", "sadc_2017_national.sav")
  )

*dat
```
]
 
.panel2-haven_gt-auto[

```
  # A tibble: 203,663 x 314
     sitecode sitename sitetype sitetypenum  year survyear weight stratum   PSU
     <chr+lb> <chr>    <chr>          <dbl> <dbl>    <dbl>  <dbl>   <dbl> <dbl>
   1 XX [Uni~ United ~ National           3  1991        1 0.264    12210     5
   2 XX [Uni~ United ~ National           3  1991        1 0.506    12310    29
   3 XX [Uni~ United ~ National           3  1991        1 0.320    11400    33
   4 XX [Uni~ United ~ National           3  1991        1 0.779    11200    21
   5 XX [Uni~ United ~ National           3  1991        1 1.39     12100     8
   6 XX [Uni~ United ~ National           3  1991        1 0.0344   19007   147
   7 XX [Uni~ United ~ National           3  1991        1 0.125    19006   143
   8 XX [Uni~ United ~ National           3  1991        1 0.165    11410    20
   9 XX [Uni~ United ~ National           3  1991        1 0.431    19005   130
  10 XX [Uni~ United ~ National           3  1991        1 0.416    19003    59
  # ... with 203,653 more rows, and 305 more variables: record <dbl>,
  #   age <dbl+lbl>, sex <dbl+lbl>, grade <dbl+lbl>, race4 <dbl+lbl>,
  #   race7 <dbl+lbl>, stheight <dbl>, stweight <dbl>, bmi <dbl>, bmipct <dbl>,
  #   qnobese <dbl>, qnowt <dbl>, q67 <dbl+lbl>, q66 <dbl+lbl>, sexid <dbl+lbl>,
  #   sexid2 <dbl+lbl>, sexpart <dbl+lbl>, sexpart2 <dbl+lbl>, q8 <dbl+lbl>,
  #   q9 <dbl+lbl>, q10 <dbl+lbl>, q11 <dbl+lbl>, q12 <dbl+lbl>, q13 <dbl+lbl>,
  #   q14 <dbl+lbl>, q15 <dbl+lbl>, q16 <dbl+lbl>, q17 <dbl+lbl>, q18 <dbl+lbl>,
  #   q19 <dbl+lbl>, q20 <dbl+lbl>, q21 <dbl+lbl>, q22 <dbl+lbl>, q23 <dbl+lbl>,
  #   q24 <dbl+lbl>, q25 <dbl+lbl>, q26 <dbl+lbl>, q27 <dbl+lbl>, q28 <dbl+lbl>,
…
count: false
 
## {haven} + {gtsummary}
.panel1-haven_gt2-auto[

```r
*dat
```
]
 
.panel2-haven_gt2-auto[

```
  # A tibble: 203,663 x 314
     sitecode sitename sitetype sitetypenum  year survyear weight stratum   PSU
     <chr+lb> <chr>    <chr>          <dbl> <dbl>    <dbl>  <dbl>   <dbl> <dbl>
   1 XX [Uni~ United ~ National           3  1991        1 0.264    12210     5
   2 XX [Uni~ United ~ National           3  1991        1 0.506    12310    29
   3 XX [Uni~ United ~ National           3  1991        1 0.320    11400    33
   4 XX [Uni~ United ~ National           3  1991        1 0.779    11200    21
   5 XX [Uni~ United ~ National           3  1991        1 1.39     12100     8
   6 XX [Uni~ United ~ National           3  1991        1 0.0344   19007   147
   7 XX [Uni~ United ~ National           3  1991        1 0.125    19006   143
   8 XX [Uni~ United ~ National           3  1991        1 0.165    11410    20
   9 XX [Uni~ United ~ National           3  1991        1 0.431    19005   130
  10 XX [Uni~ United ~ National           3  1991        1 0.416    19003    59
  # ... with 203,653 more rows, and 305 more variables: record <dbl>,
  #   age <dbl+lbl>, sex <dbl+lbl>, grade <dbl+lbl>, race4 <dbl+lbl>,
  #   race7 <dbl+lbl>, stheight <dbl>, stweight <dbl>, bmi <dbl>, bmipct <dbl>,
  #   qnobese <dbl>, qnowt <dbl>, q67 <dbl+lbl>, q66 <dbl+lbl>, sexid <dbl+lbl>,
  #   sexid2 <dbl+lbl>, sexpart <dbl+lbl>, sexpart2 <dbl+lbl>, q8 <dbl+lbl>,
  #   q9 <dbl+lbl>, q10 <dbl+lbl>, q11 <dbl+lbl>, q12 <dbl+lbl>, q13 <dbl+lbl>,
  #   q14 <dbl+lbl>, q15 <dbl+lbl>, q16 <dbl+lbl>, q17 <dbl+lbl>, q18 <dbl+lbl>,
  #   q19 <dbl+lbl>, q20 <dbl+lbl>, q21 <dbl+lbl>, q22 <dbl+lbl>, q23 <dbl+lbl>,
  #   q24 <dbl+lbl>, q25 <dbl+lbl>, q26 <dbl+lbl>, q27 <dbl+lbl>, q28 <dbl+lbl>,
…
## {haven} + {gtsummary}
.panel1-haven_gt2-auto[

```r
dat %>%
* dplyr::select(q8)
```
]
 
.panel2-haven_gt2-auto[

```
  # A tibble: 203,663 x 1
                        q8
                 <dbl+lbl>
   1  2 [Rarely]          
   2 NA                   
   3  4 [Most of the time]
   4  4 [Most of the time]
   5  1 [Never]           
   6  1 [Never]           
   7  3 [Sometimes]       
   8  5 [Always]          
   9  4 [Most of the time]
  10  4 [Most of the time]
  # ... with 203,653 more rows
```
…
## {haven} + {gtsummary}
.panel1-haven_gt2-auto[

```r
dat %>%
  dplyr::select(q8) %>%
* mutate(q8 = haven::as_factor(q8))
```
]
 
.panel2-haven_gt2-auto[

```
  # A tibble: 203,663 x 1
     q8              
     <fct>           
   1 Rarely          
   2 <NA>            
   3 Most of the time
   4 Most of the time
   5 Never           
   6 Never           
   7 Sometimes       
   8 Always          
   9 Most of the time
  10 Most of the time
  # ... with 203,653 more rows
```
…
